#2021-03-07 14:35:41: Begin processing
Warning: k given in config file (27) differs from k given in command line: 5
                    Prioritizing config file.
using table size given in configuration...
required table size: 6031233027
actual table size: 6348666352
table size in memory (MiB): 36327.36
starting building table
processed 237.42/8661.45 MiB => 2.7%processed 365.02/8661.45 MiB => 4.2%processed 493.85/8661.45 MiB => 5.7%processed 620.95/8661.45 MiB => 7.2%processed 730.02/8661.45 MiB => 8.4%processed 832.10/8661.45 MiB => 9.6%processed 929.37/8661.45 MiB => 10.7%processed 1015.52/8661.45 MiB => 11.7%processed 1094.92/8661.45 MiB => 12.6%processed 1171.57/8661.45 MiB => 13.5%processed 1227.48/8661.45 MiB => 14.2%processed 1458.45/8661.45 MiB => 16.8%processed 1519.91/8661.45 MiB => 17.5%processed 1564.46/8661.45 MiB => 18.1%processed 1612.92/8661.45 MiB => 18.6%processed 1802.03/8661.45 MiB => 20.8%processed 1983.43/8661.45 MiB => 22.9%processed 2156.56/8661.45 MiB => 24.9%processed 2319.45/8661.45 MiB => 26.8%processed 2471.42/8661.45 MiB => 28.5%processed 2609.83/8661.45 MiB => 30.1%processed 2741.82/8661.45 MiB => 31.7%processed 2890.64/8661.45 MiB => 33.4%processed 2945.22/8661.45 MiB => 34.0%processed 2991.43/8661.45 MiB => 34.5%processed 3042.70/8661.45 MiB => 35.1%processed 3093.15/8661.45 MiB => 35.7%processed 3137.56/8661.45 MiB => 36.2%processed 3184.21/8661.45 MiB => 36.8%processed 3228.05/8661.45 MiB => 37.3%processed 3274.13/8661.45 MiB => 37.8%processed 3317.89/8661.45 MiB => 38.3%processed 3364.78/8661.45 MiB => 38.8%processed 3409.52/8661.45 MiB => 39.4%processed 3453.39/8661.45 MiB => 39.9%processed 3499.54/8661.45 MiB => 40.4%processed 3543.76/8661.45 MiB => 40.9%processed 3587.20/8661.45 MiB => 41.4%processed 3630.80/8661.45 MiB => 41.9%processed 3676.31/8661.45 MiB => 42.4%processed 3722.67/8661.45 MiB => 43.0%processed 3768.81/8661.45 MiB => 43.5%processed 3813.20/8661.45 MiB => 44.0%processed 3858.21/8661.45 MiB => 44.5%processed 3903.46/8661.45 MiB => 45.1%processed 3949.21/8661.45 MiB => 45.6%processed 3993.62/8661.45 MiB => 46.1%processed 4038.31/8661.45 MiB => 46.6%processed 4082.45/8661.45 MiB => 47.1%processed 4127.51/8661.45 MiB => 47.7%processed 4173.38/8661.45 MiB => 48.2%processed 4219.72/8661.45 MiB => 48.7%processed 4266.98/8661.45 MiB => 49.3%processed 4310.87/8661.45 MiB => 49.8%processed 4357.06/8661.45 MiB => 50.3%processed 4401.89/8661.45 MiB => 50.8%processed 4445.35/8661.45 MiB => 51.3%processed 4490.03/8661.45 MiB => 51.8%processed 4534.83/8661.45 MiB => 52.4%processed 4579.01/8661.45 MiB => 52.9%processed 4625.86/8661.45 MiB => 53.4%processed 4670.23/8661.45 MiB => 53.9%processed 4716.90/8661.45 MiB => 54.5%processed 4767.85/8661.45 MiB => 55.0%processed 4811.43/8661.45 MiB => 55.5%processed 4858.51/8661.45 MiB => 56.1%processed 4909.02/8661.45 MiB => 56.7%processed 4955.54/8661.45 MiB => 57.2%processed 4999.88/8661.45 MiB => 57.7%processed 5043.89/8661.45 MiB => 58.2%processed 5087.94/8661.45 MiB => 58.7%processed 5134.18/8661.45 MiB => 59.3%processed 5180.57/8661.45 MiB => 59.8%processed 5226.42/8661.45 MiB => 60.3%processed 5270.43/8661.45 MiB => 60.8%processed 5315.64/8661.45 MiB => 61.4%processed 5360.52/8661.45 MiB => 61.9%processed 5405.43/8661.45 MiB => 62.4%processed 5449.62/8661.45 MiB => 62.9%processed 5495.46/8661.45 MiB => 63.4%processed 5542.80/8661.45 MiB => 64.0%processed 5586.33/8661.45 MiB => 64.5%processed 5632.50/8661.45 MiB => 65.0%processed 5676.18/8661.45 MiB => 65.5%processed 5723.15/8661.45 MiB => 66.1%processed 5767.80/8661.45 MiB => 66.6%processed 5812.87/8661.45 MiB => 67.1%processed 5857.95/8661.45 MiB => 67.6%processed 5902.90/8661.45 MiB => 68.2%processed 5947.88/8661.45 MiB => 68.7%processed 5991.69/8661.45 MiB => 69.2%processed 6039.39/8661.45 MiB => 69.7%processed 6088.36/8661.45 MiB => 70.3%processed 6132.13/8661.45 MiB => 70.8%processed 6183.15/8661.45 MiB => 71.4%processed 6230.16/8661.45 MiB => 71.9%processed 6275.67/8661.45 MiB => 72.5%processed 6321.65/8661.45 MiB => 73.0%processed 6365.78/8661.45 MiB => 73.5%processed 6409.38/8661.45 MiB => 74.0%processed 6454.04/8661.45 MiB => 74.5%processed 6501.19/8661.45 MiB => 75.1%processed 6546.35/8661.45 MiB => 75.6%processed 6592.24/8661.45 MiB => 76.1%processed 6637.02/8661.45 MiB => 76.6%processed 6680.99/8661.45 MiB => 77.1%processed 6725.06/8661.45 MiB => 77.6%processed 6769.68/8661.45 MiB => 78.2%processed 6814.89/8661.45 MiB => 78.7%processed 6858.29/8661.45 MiB => 79.2%processed 6902.43/8661.45 MiB => 79.7%processed 6954.60/8661.45 MiB => 80.3%processed 7000.56/8661.45 MiB => 80.8%processed 7045.63/8661.45 MiB => 81.3%processed 7093.70/8661.45 MiB => 81.9%processed 7137.84/8661.45 MiB => 82.4%processed 7187.88/8661.45 MiB => 83.0%processed 7232.05/8661.45 MiB => 83.5%processed 7275.99/8661.45 MiB => 84.0%processed 7319.65/8661.45 MiB => 84.5%processed 7369.92/8661.45 MiB => 85.1%processed 7414.61/8661.45 MiB => 85.6%processed 7457.93/8661.45 MiB => 86.1%processed 7502.48/8661.45 MiB => 86.6%processed 7547.24/8661.45 MiB => 87.1%processed 7591.04/8661.45 MiB => 87.6%processed 7634.37/8661.45 MiB => 88.1%processed 7678.87/8661.45 MiB => 88.7%processed 7724.62/8661.45 MiB => 89.2%processed 7769.88/8661.45 MiB => 89.7%processed 7814.29/8661.45 MiB => 90.2%processed 7860.30/8661.45 MiB => 90.8%processed 7909.39/8661.45 MiB => 91.3%processed 7952.70/8661.45 MiB => 91.8%processed 7996.04/8661.45 MiB => 92.3%processed 8039.38/8661.45 MiB => 92.8%processed 8082.70/8661.45 MiB => 93.3%processed 8126.14/8661.45 MiB => 93.8%processed 8169.47/8661.45 MiB => 94.3%processed 8212.81/8661.45 MiB => 94.8%processed 8256.16/8661.45 MiB => 95.3%processed 8299.70/8661.45 MiB => 95.8%processed 8343.13/8661.45 MiB => 96.3%processed 8389.85/8661.45 MiB => 96.9%processed 8434.57/8661.45 MiB => 97.4%processed 8479.49/8661.45 MiB => 97.9%processed 8523.20/8661.45 MiB => 98.4%processed 8661.45/8661.45 MiB => 100.0%
finished building table
load factor: 0.950
unique k-mers: 6031233027
#2021-03-07 14:52:19: All Reads processed
