s	h:m:s	max_rss	max_vms	max_uss	max_pss	io_in	io_out	mean_load	cpu_time
1040.3819	0:17:20	51352.25	55111.23	51351.27	51352.00	1594.15	45280.82	981.45	10210.89
1022.2430	0:17:02	51414.34	55173.94	51351.73	51352.46	3458.97	48406.84	988.43	10104.16
1057.5840	0:17:37	51458.81	55223.26	51457.95	51458.68	4881.47	47312.01	974.33	10304.39
1023.0637	0:17:03	51447.27	55222.85	51446.52	51447.25	4754.85	47997.18	990.70	10135.54
1040.9438	0:17:20	51401.08	55161.13	51352.00	51352.73	4835.21	48436.50	975.93	10158.92
1041.7044	0:17:21	51410.30	55173.70	51348.01	51348.74	4813.78	48436.50	973.24	10138.22
1049.8979	0:17:29	51444.71	55223.18	51443.32	51444.05	4753.42	48436.50	969.44	10178.17
1022.5854	0:17:02	51411.38	55174.34	51348.75	51349.48	4753.05	47920.01	985.97	10082.48
1057.9981	0:17:37	51470.27	55236.17	51469.11	51469.84	4765.58	47152.01	979.73	10365.53
1039.1600	0:17:19	51454.62	55222.74	51347.76	51348.49	4753.50	48436.50	988.41	10271.25
