s	h:m:s	max_rss	max_vms	max_uss	max_pss	io_in	io_out	mean_load	cpu_time
842.6769	0:14:02	39448.91	43221.59	39448.36	39449.13	87.53	33168.18	1033.09	8705.68
889.3223	0:14:49	39066.61	42821.21	39010.29	39011.02	3093.00	35735.00	1030.24	9162.21
854.5123	0:14:14	38908.00	42650.80	38906.09	38906.83	3093.01	36327.37	1024.12	8751.33
869.9129	0:14:29	38879.00	42620.69	38822.26	38822.99	3093.00	33887.51	1005.94	8750.83
896.9942	0:14:56	39239.69	42999.02	39151.93	39152.66	3093.00	34384.01	1046.72	9389.05
893.9362	0:14:53	39160.36	42910.28	39072.50	39073.24	3093.00	35447.71	1037.89	9278.18
869.2646	0:14:29	38921.00	42664.71	38919.29	38920.02	3093.00	33918.64	1030.52	8957.96
881.3726	0:14:41	38957.92	42693.79	38917.51	38918.24	3092.98	32192.01	1039.55	9162.36
902.4374	0:15:02	39020.26	42767.14	38844.68	38845.42	3094.05	36327.37	1048.62	9463.23
871.1312	0:14:31	38918.54	42655.00	38916.52	38917.25	3092.98	33967.77	1032.36	8993.15
