s	h:m:s	max_rss	max_vms	max_uss	max_pss	io_in	io_out	mean_load	cpu_time
931.1869	0:15:31	35411.61	39184.86	35410.89	35411.65	87.53	29613.14	1103.43	10275.06
899.9954	0:14:59	35411.95	39185.75	35411.90	35412.63	87.55	29846.66	1096.89	9872.05
888.1936	0:14:48	35411.59	39184.98	35411.04	35411.77	87.55	31766.62	1101.03	9779.35
893.0221	0:14:53	35412.64	39185.59	35411.80	35412.53	87.47	31287.23	1100.38	9826.70
931.4072	0:15:31	35412.30	39185.60	35411.80	35412.53	87.47	29824.01	1083.67	10093.36
870.7254	0:14:30	35347.55	39112.57	35354.02	35354.75	87.47	29495.88	1072.88	9341.91
891.4841	0:14:51	35412.85	39185.73	35411.91	35412.64	87.47	31209.98	1103.54	9837.84
890.9344	0:14:50	35412.12	39185.75	35412.04	35412.77	87.47	30552.55	1097.94	9782.06
889.3122	0:14:49	35412.48	39185.61	35411.80	35412.54	87.47	31458.04	1099.96	9782.09
922.6020	0:15:22	35412.27	39185.75	35411.89	35412.62	87.47	30918.35	1111.18	10251.87
