s	h:m:s	max_rss	max_vms	max_uss	max_pss	io_in	io_out	mean_load	cpu_time
1159.8565	0:19:19	36645.22	40418.80	36644.94	36645.81	87.49	33521.91	1182.01	13709.66
1158.1102	0:19:18	36497.84	40258.85	36496.62	36497.46	8109.96	33521.91	1167.84	13524.87
1161.4491	0:19:21	36544.90	40306.94	36544.13	36544.96	8109.96	33521.91	1164.95	13530.37
1174.3539	0:19:34	36645.15	40418.00	36644.32	36645.15	8109.94	31888.01	1165.42	13686.16
1156.1609	0:19:16	36590.00	40356.41	36589.01	36589.84	8109.94	33521.91	1171.87	13548.76
1165.9081	0:19:25	36541.21	40307.40	36496.03	36496.86	8109.94	33256.10	1172.35	13668.50
1157.5919	0:19:17	36545.41	40307.29	36544.45	36545.28	8109.94	29680.01	1170.28	13547.04
1155.9109	0:19:15	36601.43	40369.59	36600.46	36601.29	8109.94	29236.27	1177.45	13610.35
1065.2618	0:17:45	36601.36	40369.46	36538.77	36539.60	8109.94	33521.91	1151.31	12264.55
1173.7985	0:19:33	36497.39	40258.61	36496.39	36497.22	8109.94	31552.01	1166.74	13695.27
