s	h:m:s	max_rss	max_vms	max_uss	max_pss	io_in	io_out	mean_load	cpu_time
998.8977	0:16:38	39451.18	43224.35	39450.90	39451.66	87.47	32959.80	1092.30	10910.98
992.9211	0:16:32	39296.62	43063.32	39295.79	39296.52	3092.99	32677.34	1087.59	10798.96
986.5608	0:16:26	39303.02	43063.76	39301.74	39302.47	3092.99	34375.97	1090.55	10758.89
983.1216	0:16:23	39241.39	43001.31	39240.04	39240.77	3092.99	35968.01	1093.88	10754.17
985.9348	0:16:25	39297.41	43063.48	39295.86	39296.59	3092.99	35352.68	1087.17	10718.78
1005.3889	0:16:45	39290.03	43051.02	39289.09	39289.82	3094.06	36327.37	1062.91	10686.40
992.7044	0:16:32	39350.76	43112.48	39349.89	39350.62	3092.99	34342.28	1083.23	10753.30
987.8049	0:16:27	39302.43	43062.82	39300.89	39301.62	3092.99	35807.75	1087.80	10745.29
990.2709	0:16:30	39297.57	43063.84	39296.34	39297.07	3092.99	34101.43	1088.45	10778.69
988.7854	0:16:28	39351.93	43113.68	39350.97	39351.70	3092.99	34876.59	1086.29	10741.10
