s	h:m:s	max_rss	max_vms	max_uss	max_pss	io_in	io_out	mean_load	cpu_time
1056.2960	0:17:36	53198.55	56957.32	53197.34	53198.07	2940.81	49399.00	1013.76	10708.36
1079.8963	0:17:59	53304.24	57069.17	53259.34	53260.07	4101.48	47084.17	997.13	10768.08
1081.2076	0:18:01	53291.41	57069.28	53259.45	53260.17	5124.23	50282.87	998.68	10797.86
1084.5511	0:18:04	53260.60	57020.38	53259.66	53260.38	5793.17	50282.87	994.11	10781.71
1071.1611	0:17:51	53294.40	57069.16	53231.84	53232.57	5432.96	47166.23	992.42	10630.49
1066.3913	0:17:46	53359.80	57131.41	53298.28	53299.01	5527.66	49472.01	998.55	10648.40
1082.0734	0:18:02	53245.93	57020.27	53244.99	53245.64	5365.97	49652.74	991.91	10733.27
1096.3743	0:18:16	53259.50	57019.64	53197.49	53198.22	5360.14	47101.51	984.37	10792.50
1068.2905	0:17:48	53360.78	57131.01	53242.21	53242.94	5426.15	47608.57	993.50	10613.45
1081.4186	0:18:01	53260.22	57020.05	53259.38	53260.10	5323.06	50282.87	981.25	10611.56
