#2021-03-09 14:58:46: Begin processing
Warning: k given in config file (25) differs from k given in command line: 5
                    Prioritizing config file.
using table size given in configuration...
required table size: 5984845496
actual table size: 6299837368
table size in memory (MiB): 24031.97
starting building table
processed 237.42/8582.83 MiB => 2.8%processed 365.02/8582.83 MiB => 4.3%processed 493.85/8582.83 MiB => 5.8%processed 620.95/8582.83 MiB => 7.2%processed 730.02/8582.83 MiB => 8.5%processed 832.10/8582.83 MiB => 9.7%processed 929.37/8582.83 MiB => 10.8%processed 1015.52/8582.83 MiB => 11.8%processed 1094.92/8582.83 MiB => 12.8%processed 1171.57/8582.83 MiB => 13.7%processed 1227.48/8582.83 MiB => 14.3%processed 1458.45/8582.83 MiB => 17.0%processed 1519.91/8582.83 MiB => 17.7%processed 1564.46/8582.83 MiB => 18.2%processed 1612.92/8582.83 MiB => 18.8%processed 1802.03/8582.83 MiB => 21.0%processed 1983.43/8582.83 MiB => 23.1%processed 2156.56/8582.83 MiB => 25.1%processed 2319.45/8582.83 MiB => 27.0%processed 2471.42/8582.83 MiB => 28.8%processed 2609.83/8582.83 MiB => 30.4%processed 2741.82/8582.83 MiB => 31.9%processed 2890.64/8582.83 MiB => 33.7%processed 2945.22/8582.83 MiB => 34.3%processed 2989.66/8582.83 MiB => 34.8%processed 3035.88/8582.83 MiB => 35.4%processed 3082.83/8582.83 MiB => 35.9%processed 3132.26/8582.83 MiB => 36.5%processed 3175.77/8582.83 MiB => 37.0%processed 3219.06/8582.83 MiB => 37.5%processed 3266.73/8582.83 MiB => 38.1%processed 3323.31/8582.83 MiB => 38.7%processed 3368.67/8582.83 MiB => 39.2%processed 3414.59/8582.83 MiB => 39.8%processed 3457.54/8582.83 MiB => 40.3%processed 3500.49/8582.83 MiB => 40.8%processed 3545.55/8582.83 MiB => 41.3%processed 3588.53/8582.83 MiB => 41.8%processed 3635.03/8582.83 MiB => 42.4%processed 3681.44/8582.83 MiB => 42.9%processed 3728.86/8582.83 MiB => 43.4%processed 3774.22/8582.83 MiB => 44.0%processed 3817.74/8582.83 MiB => 44.5%processed 3863.15/8582.83 MiB => 45.0%processed 3906.11/8582.83 MiB => 45.5%processed 3949.81/8582.83 MiB => 46.0%processed 3992.77/8582.83 MiB => 46.5%processed 4036.91/8582.83 MiB => 47.0%processed 4080.81/8582.83 MiB => 47.5%processed 4124.97/8582.83 MiB => 48.1%processed 4168.59/8582.83 MiB => 48.6%processed 4212.34/8582.83 MiB => 49.1%processed 4258.59/8582.83 MiB => 49.6%processed 4305.13/8582.83 MiB => 50.2%processed 4348.32/8582.83 MiB => 50.7%processed 4391.37/8582.83 MiB => 51.2%processed 4434.61/8582.83 MiB => 51.7%processed 4478.96/8582.83 MiB => 52.2%processed 4522.72/8582.83 MiB => 52.7%processed 4568.75/8582.83 MiB => 53.2%processed 4612.52/8582.83 MiB => 53.7%processed 4658.00/8582.83 MiB => 54.3%processed 4704.10/8582.83 MiB => 54.8%processed 4750.89/8582.83 MiB => 55.4%processed 4799.00/8582.83 MiB => 55.9%processed 4842.42/8582.83 MiB => 56.4%processed 4887.56/8582.83 MiB => 56.9%processed 4933.15/8582.83 MiB => 57.5%processed 4976.07/8582.83 MiB => 58.0%processed 5020.29/8582.83 MiB => 58.5%processed 5066.97/8582.83 MiB => 59.0%processed 5111.39/8582.83 MiB => 59.6%processed 5156.42/8582.83 MiB => 60.1%processed 5200.24/8582.83 MiB => 60.6%processed 5244.28/8582.83 MiB => 61.1%processed 5288.11/8582.83 MiB => 61.6%processed 5331.78/8582.83 MiB => 62.1%processed 5374.74/8582.83 MiB => 62.6%processed 5420.80/8582.83 MiB => 63.2%processed 5465.22/8582.83 MiB => 63.7%processed 5510.04/8582.83 MiB => 64.2%processed 5554.40/8582.83 MiB => 64.7%processed 5600.38/8582.83 MiB => 65.3%processed 5644.07/8582.83 MiB => 65.8%processed 5687.18/8582.83 MiB => 66.3%processed 5731.31/8582.83 MiB => 66.8%processed 5776.17/8582.83 MiB => 67.3%processed 5826.87/8582.83 MiB => 67.9%processed 5875.82/8582.83 MiB => 68.5%processed 5921.49/8582.83 MiB => 69.0%processed 5965.51/8582.83 MiB => 69.5%processed 6011.69/8582.83 MiB => 70.0%processed 6059.11/8582.83 MiB => 70.6%processed 6102.06/8582.83 MiB => 71.1%processed 6147.64/8582.83 MiB => 71.6%processed 6190.81/8582.83 MiB => 72.1%processed 6237.66/8582.83 MiB => 72.7%processed 6285.73/8582.83 MiB => 73.2%processed 6329.60/8582.83 MiB => 73.7%processed 6375.11/8582.83 MiB => 74.3%processed 6418.37/8582.83 MiB => 74.8%processed 6461.76/8582.83 MiB => 75.3%processed 6504.98/8582.83 MiB => 75.8%processed 6551.27/8582.83 MiB => 76.3%processed 6596.83/8582.83 MiB => 76.9%processed 6641.45/8582.83 MiB => 77.4%processed 6685.55/8582.83 MiB => 77.9%processed 6729.46/8582.83 MiB => 78.4%processed 6775.52/8582.83 MiB => 78.9%processed 6818.92/8582.83 MiB => 79.4%processed 6862.64/8582.83 MiB => 80.0%processed 6908.00/8582.83 MiB => 80.5%processed 6957.16/8582.83 MiB => 81.1%processed 7002.55/8582.83 MiB => 81.6%processed 7048.07/8582.83 MiB => 82.1%processed 7091.09/8582.83 MiB => 82.6%processed 7137.11/8582.83 MiB => 83.2%processed 7181.53/8582.83 MiB => 83.7%processed 7226.31/8582.83 MiB => 84.2%processed 7270.71/8582.83 MiB => 84.7%processed 7318.26/8582.83 MiB => 85.3%processed 7361.60/8582.83 MiB => 85.8%processed 7408.25/8582.83 MiB => 86.3%processed 7453.52/8582.83 MiB => 86.8%processed 7503.59/8582.83 MiB => 87.4%processed 7547.22/8582.83 MiB => 87.9%processed 7593.43/8582.83 MiB => 88.5%processed 7636.59/8582.83 MiB => 89.0%processed 7680.75/8582.83 MiB => 89.5%processed 7724.03/8582.83 MiB => 90.0%processed 7767.97/8582.83 MiB => 90.5%processed 7811.92/8582.83 MiB => 91.0%processed 7857.15/8582.83 MiB => 91.5%processed 7902.76/8582.83 MiB => 92.1%processed 7945.69/8582.83 MiB => 92.6%processed 7988.62/8582.83 MiB => 93.1%processed 8031.60/8582.83 MiB => 93.6%processed 8074.64/8582.83 MiB => 94.1%processed 8117.59/8582.83 MiB => 94.6%processed 8160.73/8582.83 MiB => 95.1%processed 8203.69/8582.83 MiB => 95.6%processed 8246.85/8582.83 MiB => 96.1%processed 8290.05/8582.83 MiB => 96.6%processed 8335.76/8582.83 MiB => 97.1%processed 8379.26/8582.83 MiB => 97.6%processed 8424.73/8582.83 MiB => 98.2%processed 8582.83/8582.83 MiB => 100.0%
finished building table
load factor: 0.941
unique k-mers: 5929575835
#2021-03-09 15:12:03: All Reads processed
