s	h:m:s	max_rss	max_vms	max_uss	max_pss	io_in	io_out	mean_load	cpu_time
352.2184	0:05:52	40239.29	43707.31	40236.86	40237.59	32846.82	0.22	281.16	1.85
330.2996	0:05:30	40560.75	44015.45	40570.70	40571.44	24154.05	0.00	368.05	1215.68
340.1516	0:05:40	40236.59	43707.71	40237.25	40237.98	21517.79	0.00	352.32	1198.49
326.9278	0:05:26	40249.20	43707.91	40246.78	40247.51	19097.76	0.22	367.47	1201.45
322.9868	0:05:22	40253.08	43708.07	40250.60	40251.33	21219.41	0.22	294.56	1.70
325.6887	0:05:25	40239.35	43707.61	40236.97	40237.70	19539.60	0.22	293.15	0.04
317.9136	0:05:17	40258.45	43713.92	40256.12	40256.84	17868.87	0.00	333.39	1059.90
333.7253	0:05:33	40373.45	43841.04	40373.11	40373.85	24375.74	0.00	365.80	1220.83
322.6746	0:05:22	40243.60	43711.07	40258.14	40258.87	20909.09	0.22	295.21	2.02
336.7046	0:05:36	40629.93	44099.74	40522.99	40523.74	21184.96	0.00	348.55	1173.58
