s	h:m:s	max_rss	max_vms	max_uss	max_pss	io_in	io_out	mean_load	cpu_time
213.2003	0:03:33	28310.26	31777.86	28313.68	28314.42	472.58	0.00	516.38	1100.92
203.2966	0:03:23	27959.73	31414.99	27957.43	27958.15	169.65	0.22	414.74	0.03
206.3827	0:03:26	27956.42	31411.48	27953.93	27954.65	88.40	0.22	557.04	1149.69
203.1702	0:03:23	27956.88	31412.20	27954.61	27955.33	94.33	0.22	436.74	0.05
205.9752	0:03:25	27955.88	31411.18	27953.54	27954.27	88.36	0.22	555.55	1144.31
203.3683	0:03:23	27959.23	31414.48	27956.94	27957.67	103.80	0.22	430.26	1.60
203.7715	0:03:23	27959.45	31414.70	27957.13	27957.86	92.31	0.22	435.21	0.01
207.2802	0:03:27	28255.59	31710.43	28253.12	28253.87	88.36	0.00	563.94	1168.97
205.4599	0:03:25	27955.66	31410.84	27953.21	27953.93	88.36	0.22	551.22	1132.59
205.8567	0:03:25	27956.59	31411.86	27954.24	27954.97	88.36	0.22	550.88	1134.06
