s	h:m:s	max_rss	max_vms	max_uss	max_pss	io_in	io_out	mean_load	cpu_time
386.7328	0:06:26	41624.74	45092.43	41622.36	41623.09	38079.92	0.22	309.22	1195.90
352.3184	0:05:52	41631.54	45099.25	41629.20	41629.92	27576.65	0.22	279.43	1.93
370.4779	0:06:10	41639.30	45126.72	41637.89	41638.63	27079.43	0.00	306.20	1134.43
353.8584	0:05:53	41626.85	45130.10	41634.61	41635.34	23262.97	0.22	291.22	1.73
362.4825	0:06:02	41877.12	45344.23	41874.70	41875.44	23931.33	0.00	302.68	1097.19
357.6169	0:05:57	41624.85	45092.42	41622.38	41623.11	24584.74	0.22	333.95	1194.28
361.9826	0:06:01	41918.13	45385.43	41929.51	41930.25	26147.93	0.00	319.12	1155.20
362.5554	0:06:02	41908.04	45375.73	41910.81	41911.55	25386.54	0.00	308.58	1118.83
351.3906	0:05:51	41637.70	45105.39	41635.34	41636.07	25215.28	0.22	302.07	2.08
358.0296	0:05:58	41625.09	45092.77	41622.73	41623.46	25439.69	0.22	325.34	1164.87
