s	h:m:s	max_rss	max_vms	max_uss	max_pss	io_in	io_out	mean_load	cpu_time
220.4687	0:03:40	28013.50	31509.69	28001.34	28002.08	1831.19	0.00	506.21	1116.08
203.9502	0:03:23	27958.11	31413.28	27955.73	27956.46	143.70	0.22	427.19	0.01
203.3810	0:03:23	27958.11	31413.29	27955.76	27956.49	100.35	0.22	427.70	0.98
205.2901	0:03:25	27958.15	31413.07	27955.79	27956.52	88.36	0.22	553.01	1135.34
206.1509	0:03:26	27958.48	31413.63	27956.11	27956.84	88.36	0.22	556.72	1147.77
208.0923	0:03:28	28256.97	31713.24	28255.46	28256.20	88.36	0.00	554.63	1154.19
207.3136	0:03:27	28264.73	31721.15	28262.50	28263.25	88.36	0.00	566.55	1174.57
205.1845	0:03:25	27958.31	31413.49	27955.92	27956.65	88.36	0.22	553.61	1136.03
206.5415	0:03:26	27958.10	31413.28	27955.71	27956.44	88.36	0.22	544.30	1124.24
206.9635	0:03:26	27957.59	31412.77	27955.20	27955.93	88.36	0.00	558.88	1156.76
