s	h:m:s	max_rss	max_vms	max_uss	max_pss	io_in	io_out	mean_load	cpu_time
440.7416	0:07:20	54201.88	57669.98	54199.46	54200.19	50744.45	0.22	247.18	2.84
443.2796	0:07:23	54205.66	57673.60	54226.27	54226.99	50717.74	0.22	242.48	2.09
441.0640	0:07:21	54204.75	57672.79	54202.35	54203.08	50743.49	0.22	249.31	2.85
437.7896	0:07:17	54206.67	57711.18	54205.82	54206.55	50649.36	0.00	253.60	1110.30
443.9602	0:07:23	54205.03	57673.10	54202.60	54203.33	50683.48	0.22	240.66	1.84
441.3969	0:07:21	54202.11	57670.29	54199.75	54200.47	50753.23	0.22	252.15	2.71
439.7695	0:07:19	54202.21	57670.25	54199.86	54200.58	50650.50	0.00	250.14	1100.11
443.1847	0:07:23	54208.59	57676.85	54206.24	54206.97	50720.50	0.22	250.30	2.02
444.3452	0:07:24	54203.20	57672.83	54200.83	54201.54	50721.88	0.22	240.05	1.90
458.2673	0:07:38	54196.09	57664.33	54193.68	54194.36	50647.87	0.22	276.26	1265.98
