s	h:m:s	max_rss	max_vms	max_uss	max_pss	io_in	io_out	mean_load	cpu_time
218.3160	0:03:38	27891.31	31357.99	27892.09	27892.98	1335.78	0.00	519.33	1133.84
202.6134	0:03:22	27958.80	31413.97	27956.41	27957.29	119.46	0.22	425.56	1.46
205.3136	0:03:25	27958.14	31413.32	27955.77	27956.66	88.75	0.22	553.02	1135.49
203.4833	0:03:23	27958.66	31413.84	27956.27	27957.16	99.68	0.22	433.78	0.16
205.0578	0:03:25	27956.67	31411.82	27954.28	27955.17	88.36	0.22	552.98	1133.96
205.0955	0:03:25	27958.69	31413.61	27956.32	27957.21	88.36	0.22	551.23	1130.57
206.5656	0:03:26	28277.59	31733.67	28178.98	28179.88	88.36	0.00	555.02	1146.52
203.6886	0:03:23	27957.94	31413.11	27955.57	27956.46	92.32	0.22	434.04	0.00
204.0201	0:03:24	27958.15	31413.07	27955.78	27956.67	91.91	0.22	442.61	0.00
204.8158	0:03:24	27957.94	31413.12	27955.59	27956.47	88.36	0.22	536.85	1099.58
