s	h:m:s	max_rss	max_vms	max_uss	max_pss	io_in	io_out	mean_load	cpu_time
207.9650	0:03:27	28218.93	31677.03	28216.66	28217.41	369.05	0.00	532.00	1106.39
204.5283	0:03:24	27955.67	31411.07	27953.38	27954.11	88.37	0.22	551.88	1128.78
204.8638	0:03:24	27955.67	31410.82	27953.19	27953.92	88.36	0.22	550.59	1128.02
202.2356	0:03:22	27955.00	31410.34	27952.69	27953.42	111.22	0.22	432.16	1.55
204.3293	0:03:24	27954.95	31410.09	27952.45	27953.18	88.36	0.22	542.25	1108.01
206.3894	0:03:26	28053.46	31508.27	28037.93	28038.67	88.36	0.00	548.37	1131.79
203.6572	0:03:23	27955.48	31410.73	27953.18	27953.90	92.33	0.22	437.01	0.01
203.9513	0:03:23	27955.54	31411.05	27953.28	27954.01	92.09	0.22	433.07	0.00
206.9298	0:03:26	28286.76	31743.95	28284.48	28285.22	88.36	0.00	555.89	1150.38
205.1808	0:03:25	27955.32	31410.46	27952.87	27953.59	88.36	0.22	551.71	1132.03
