s	h:m:s	max_rss	max_vms	max_uss	max_pss	io_in	io_out	mean_load	cpu_time
329.1617	0:05:29	37748.69	41216.56	37746.43	37747.18	29502.96	0.00	348.76	1148.04
288.7591	0:04:48	37452.66	40907.80	37450.22	37450.95	14209.23	0.22	362.53	2.76
288.0077	0:04:48	37439.65	40907.56	37437.20	37437.93	15104.92	0.22	343.75	2.93
294.8346	0:04:54	37433.00	40900.99	37430.63	37431.36	13435.31	0.22	323.70	1.44
282.6893	0:04:42	37456.50	40924.18	37457.42	37458.15	11797.14	0.00	406.33	1148.67
299.8572	0:04:59	37748.17	41216.94	37745.84	37746.58	17172.82	0.00	402.62	1207.31
281.9891	0:04:41	37477.17	40978.52	37464.96	37465.69	11878.46	0.00	399.88	1127.70
287.0684	0:04:47	37439.62	40907.56	37437.18	37437.91	13534.41	0.00	372.94	1070.66
281.1656	0:04:41	37418.93	40886.61	37403.76	37404.49	11779.88	0.00	417.07	1172.72
289.9594	0:04:49	37439.63	40907.56	37437.21	37437.94	13256.12	0.22	344.88	2.16
