s	h:m:s	max_rss	max_vms	max_uss	max_pss	io_in	io_out	mean_load	cpu_time
208.3576	0:03:28	28216.49	31679.47	28215.41	28216.15	369.48	0.00	538.66	1122.37
202.4518	0:03:22	27958.45	31413.30	27955.99	27956.72	105.22	0.22	428.04	1.63
205.2983	0:03:25	27955.91	31411.06	27953.62	27954.34	88.38	0.22	547.60	1124.23
207.3854	0:03:27	28250.16	31705.28	28256.18	28256.92	88.38	0.00	568.28	1178.60
208.4020	0:03:28	28224.37	31679.64	28228.39	28229.14	88.38	0.00	563.45	1174.29
206.4557	0:03:26	28274.79	31742.63	28272.40	28273.06	88.38	0.00	568.09	1172.87
204.2993	0:03:24	27955.82	31411.06	27953.34	27954.07	88.38	0.22	540.21	1103.66
204.9338	0:03:24	27955.89	31411.30	27953.60	27954.33	88.38	0.22	535.94	1098.38
205.6581	0:03:25	27960.05	31415.05	27957.77	27958.49	88.38	0.22	550.78	1132.75
206.6405	0:03:26	28015.70	31470.86	28000.59	28001.33	88.38	0.00	563.14	1163.76
